Untitled
…
Contaminants in biota

readxl::read_excel("havmet.xlsx")

## # A tibble: 10,493 x 23
##    accnr  year genus loc    hgfs hgfsi  pbts pbtsi  cdts cdtsi  cuts cutsi  znts
##    <chr> <dbl> <chr> <chr> <dbl> <dbl> <dbl> <lgl> <dbl> <lgl> <dbl> <dbl> <dbl>
##  1 C72/~  1972 CLUP  ANGV     74    -9    NA NA       NA NA       -9    -9    -9
##  2 C72/~  1972 CLUP  ANGV    100    -9    NA NA       NA NA       -9    -9    -9
##  3 C72/~  1972 CLUP  ANGV    253    -9    NA NA       NA NA       -9    -9    -9
##  4 C72/~  1972 CLUP  ANGV     47    -9    NA NA       NA NA       -9    -9    -9
##  5 C72/~  1972 CLUP  ANGV     48    -9    NA NA       NA NA       -9    -9    -9
##  6 C72/~  1972 CLUP  ANGV     61    -9    NA NA       NA NA       -9    -9    -9
##  7 C72/~  1972 CLUP  ANGV     41    -9    NA NA       NA NA       -9    -9    -9
##  8 C72/~  1972 CLUP  ANGV     45    -9    NA NA       NA NA       -9    -9    -9
##  9 C72/~  1972 CLUP  ANGV     72    -9    NA NA       NA NA       -9    -9    -9
## 10 C72/~  1972 CLUP  ANGV    224    -9    NA NA       NA NA       -9    -9    -9
## # ... with 10,483 more rows, and 10 more variables: zntsi <dbl>, nits <lgl>,
## #   nitsi <lgl>, crts <lgl>, crtsi <lgl>, agtsi <lgl>, astsi <lgl>,
## #   altsi <lgl>, setsi <lgl>, sntsi <lgl>

raw_data <- readxl::read_excel("havmet.xlsx", guess_max = 10000, na = "-9")
raw_data

## # A tibble: 10,493 x 23
##    accnr  year genus loc    hgfs hgfsi  pbts pbtsi  cdts cdtsi  cuts cutsi  znts
##    <chr> <dbl> <chr> <chr> <dbl> <dbl> <dbl> <dbl> <dbl> <dbl> <dbl> <dbl> <dbl>
##  1 C72/~  1972 CLUP  ANGV     74    NA    NA    NA    NA    NA    NA    NA    NA
##  2 C72/~  1972 CLUP  ANGV    100    NA    NA    NA    NA    NA    NA    NA    NA
##  3 C72/~  1972 CLUP  ANGV    253    NA    NA    NA    NA    NA    NA    NA    NA
##  4 C72/~  1972 CLUP  ANGV     47    NA    NA    NA    NA    NA    NA    NA    NA
##  5 C72/~  1972 CLUP  ANGV     48    NA    NA    NA    NA    NA    NA    NA    NA
##  6 C72/~  1972 CLUP  ANGV     61    NA    NA    NA    NA    NA    NA    NA    NA
##  7 C72/~  1972 CLUP  ANGV     41    NA    NA    NA    NA    NA    NA    NA    NA
##  8 C72/~  1972 CLUP  ANGV     45    NA    NA    NA    NA    NA    NA    NA    NA
##  9 C72/~  1972 CLUP  ANGV     72    NA    NA    NA    NA    NA    NA    NA    NA
## 10 C72/~  1972 CLUP  ANGV    224    NA    NA    NA    NA    NA    NA    NA    NA
## # ... with 10,483 more rows, and 10 more variables: zntsi <dbl>, nits <dbl>,
## #   nitsi <dbl>, crts <dbl>, crtsi <dbl>, agtsi <dbl>, astsi <dbl>,
## #   altsi <lgl>, setsi <dbl>, sntsi <dbl>

raw_data %>% 
  pivot_longer(hgfs:sntsi, names_to = "metal", values_to = "value")

## # A tibble: 199,367 x 6
##    accnr      year genus loc   metal value
##    <chr>     <dbl> <chr> <chr> <chr> <dbl>
##  1 C72/08002  1972 CLUP  ANGV  hgfs     74
##  2 C72/08002  1972 CLUP  ANGV  hgfsi    NA
##  3 C72/08002  1972 CLUP  ANGV  pbts     NA
##  4 C72/08002  1972 CLUP  ANGV  pbtsi    NA
##  5 C72/08002  1972 CLUP  ANGV  cdts     NA
##  6 C72/08002  1972 CLUP  ANGV  cdtsi    NA
##  7 C72/08002  1972 CLUP  ANGV  cuts     NA
##  8 C72/08002  1972 CLUP  ANGV  cutsi    NA
##  9 C72/08002  1972 CLUP  ANGV  znts     NA
## 10 C72/08002  1972 CLUP  ANGV  zntsi    NA
## # ... with 199,357 more rows

raw_data %>% 
  pivot_longer(hgfs:sntsi, names_to = "metal", values_to = "value") %>% 
  mutate(lab = str_extract(metal, "fsi|fs|tsi|ts"))

## # A tibble: 199,367 x 7
##    accnr      year genus loc   metal value lab  
##    <chr>     <dbl> <chr> <chr> <chr> <dbl> <chr>
##  1 C72/08002  1972 CLUP  ANGV  hgfs     74 fs   
##  2 C72/08002  1972 CLUP  ANGV  hgfsi    NA fsi  
##  3 C72/08002  1972 CLUP  ANGV  pbts     NA ts   
##  4 C72/08002  1972 CLUP  ANGV  pbtsi    NA tsi  
##  5 C72/08002  1972 CLUP  ANGV  cdts     NA ts   
##  6 C72/08002  1972 CLUP  ANGV  cdtsi    NA tsi  
##  7 C72/08002  1972 CLUP  ANGV  cuts     NA ts   
##  8 C72/08002  1972 CLUP  ANGV  cutsi    NA tsi  
##  9 C72/08002  1972 CLUP  ANGV  znts     NA ts   
## 10 C72/08002  1972 CLUP  ANGV  zntsi    NA tsi  
## # ... with 199,357 more rows

raw_data %>% 
  pivot_longer(hgfs:sntsi, names_to = "metal", values_to = "value") %>% 
  mutate(lab = str_extract(metal, "fsi|fs|tsi|ts"),
         metal = str_remove(metal, "fsi|fs|tsi|ts"))

## # A tibble: 199,367 x 7
##    accnr      year genus loc   metal value lab  
##    <chr>     <dbl> <chr> <chr> <chr> <dbl> <chr>
##  1 C72/08002  1972 CLUP  ANGV  hg       74 fs   
##  2 C72/08002  1972 CLUP  ANGV  hg       NA fsi  
##  3 C72/08002  1972 CLUP  ANGV  pb       NA ts   
##  4 C72/08002  1972 CLUP  ANGV  pb       NA tsi  
##  5 C72/08002  1972 CLUP  ANGV  cd       NA ts   
##  6 C72/08002  1972 CLUP  ANGV  cd       NA tsi  
##  7 C72/08002  1972 CLUP  ANGV  cu       NA ts   
##  8 C72/08002  1972 CLUP  ANGV  cu       NA tsi  
##  9 C72/08002  1972 CLUP  ANGV  zn       NA ts   
## 10 C72/08002  1972 CLUP  ANGV  zn       NA tsi  
## # ... with 199,357 more rows

raw_data %>% 
  pivot_longer(hgfs:sntsi, names_to = "metal", values_to = "value") %>% 
  mutate(lab = str_extract(metal, "fsi|fs|tsi|ts"),
         metal = str_remove(metal, "fsi|fs|tsi|ts"),
         value = ifelse(value < 0, abs(value) / 2, value))

## # A tibble: 199,367 x 7
##    accnr      year genus loc   metal value lab  
##    <chr>     <dbl> <chr> <chr> <chr> <dbl> <chr>
##  1 C72/08002  1972 CLUP  ANGV  hg       74 fs   
##  2 C72/08002  1972 CLUP  ANGV  hg       NA fsi  
##  3 C72/08002  1972 CLUP  ANGV  pb       NA ts   
##  4 C72/08002  1972 CLUP  ANGV  pb       NA tsi  
##  5 C72/08002  1972 CLUP  ANGV  cd       NA ts   
##  6 C72/08002  1972 CLUP  ANGV  cd       NA tsi  
##  7 C72/08002  1972 CLUP  ANGV  cu       NA ts   
##  8 C72/08002  1972 CLUP  ANGV  cu       NA tsi  
##  9 C72/08002  1972 CLUP  ANGV  zn       NA ts   
## 10 C72/08002  1972 CLUP  ANGV  zn       NA tsi  
## # ... with 199,357 more rows

data <- raw_data %>% 
  pivot_longer(hgfs:sntsi, names_to = "metal", values_to = "value") %>% 
  mutate(lab = str_extract(metal, "fsi|fs|tsi|ts"),
         metal = str_remove(metal, "fsi|fs|tsi|ts"),
         value = ifelse(value < 0, abs(value) / 2, value)) %>% 
  na.omit()
data

## # A tibble: 53,161 x 7
##    accnr      year genus loc   metal value lab  
##    <chr>     <dbl> <chr> <chr> <chr> <dbl> <chr>
##  1 C72/08002  1972 CLUP  ANGV  hg       74 fs   
##  2 C72/08003  1972 CLUP  ANGV  hg      100 fs   
##  3 C72/08004  1972 CLUP  ANGV  hg      253 fs   
##  4 C72/08005  1972 CLUP  ANGV  hg       47 fs   
##  5 C72/08006  1972 CLUP  ANGV  hg       48 fs   
##  6 C72/08007  1972 CLUP  ANGV  hg       61 fs   
##  7 C72/08008  1972 CLUP  ANGV  hg       41 fs   
##  8 C72/08009  1972 CLUP  ANGV  hg       45 fs   
##  9 C72/08010  1972 CLUP  ANGV  hg       72 fs   
## 10 C72/08011  1972 CLUP  ANGV  hg      224 fs   
## # ... with 53,151 more rows

data %>% 
  group_by(year, genus, loc, metal, lab) %>% 
  summarise(value = mean(value))

## `summarise()` has grouped output by 'year', 'genus', 'loc', 'metal'. You can override using the `.groups` argument.

## # A tibble: 5,661 x 6
## # Groups:   year, genus, loc, metal [5,603]
##     year genus loc   metal lab   value
##    <dbl> <chr> <chr> <chr> <chr> <dbl>
##  1  1972 CLUP  ANGV  hg    fs    109. 
##  2  1972 CLUP  UTLV  hg    fs     28.2
##  3  1973 CLUP  ANGV  hg    fs     49.8
##  4  1973 CLUP  UTLV  hg    fs     22.6
##  5  1974 CLUP  ANGV  hg    fs     58.5
##  6  1974 CLUP  UTLV  hg    fs     27.3
##  7  1975 CLUP  ANGV  hg    fs     57.3
##  8  1975 CLUP  UTLV  hg    fs     25.1
##  9  1979 CLUP  ANGK  hg    fs     38.4
## 10  1979 CLUP  HAFJ  hg    fs     49.4
## # ... with 5,651 more rows

agg_data <- data %>% 
  group_by(year, genus, loc, metal, lab) %>% 
  summarise(value = mean(value), .groups = "drop")
agg_data

## # A tibble: 5,661 x 6
##     year genus loc   metal lab   value
##  * <dbl> <chr> <chr> <chr> <chr> <dbl>
##  1  1972 CLUP  ANGV  hg    fs    109. 
##  2  1972 CLUP  UTLV  hg    fs     28.2
##  3  1973 CLUP  ANGV  hg    fs     49.8
##  4  1973 CLUP  UTLV  hg    fs     22.6
##  5  1974 CLUP  ANGV  hg    fs     58.5
##  6  1974 CLUP  UTLV  hg    fs     27.3
##  7  1975 CLUP  ANGV  hg    fs     57.3
##  8  1975 CLUP  UTLV  hg    fs     25.1
##  9  1979 CLUP  ANGK  hg    fs     38.4
## 10  1979 CLUP  HAFJ  hg    fs     49.4
## # ... with 5,651 more rows
…
locations <- read_csv("loctable.csv")

## 
## -- Column specification --------------------------------------------------------
## cols(
##   loc = col_character(),
##   id = col_character(),
##   name = col_character(),
##   lat = col_double(),
##   long = col_double()
## )

locations

## # A tibble: 62 x 5
##    loc   id       name                              lat    long
##    <chr> <chr>    <chr>                           <dbl>   <dbl>
##  1 40G7  00159259 East Bornholm basin, offshore 6181395 1606416
##  2 46H0  00159253 North Baltic Proper, offshore 6523708 1771651
##  3 49G9  00159257 land ocean, offshore         6686566 1696248
##  4 51G9  00159252 Bothnian Sea, offshore        6798326 1698277
##  5 ABBE  00103640 Abbeks                       6134000 1360700
##  6 ANGV  00106619 ngskrsklubb                 6715100 1629400
##  7 BYXE  00103946 Byxelkrok                     6365800 1571500
##  8 FLAD  00104094 Fladen                        6348600 1258800
##  9 GAFJ  00104178 Gaviksfjrden                 7005100 1642800
## 10 HABU  00106486 Vstra Hanbukten             6181700 1404600
## # ... with 52 more rows

locations <- suppressMessages(read_csv("loctable.csv"))
locations

## # A tibble: 62 x 5
##    loc   id       name                              lat    long
##    <chr> <chr>    <chr>                           <dbl>   <dbl>
##  1 40G7  00159259 East Bornholm basin, offshore 6181395 1606416
##  2 46H0  00159253 North Baltic Proper, offshore 6523708 1771651
##  3 49G9  00159257 land ocean, offshore         6686566 1696248
##  4 51G9  00159252 Bothnian Sea, offshore        6798326 1698277
##  5 ABBE  00103640 Abbeks                       6134000 1360700
##  6 ANGV  00106619 ngskrsklubb                 6715100 1629400
##  7 BYXE  00103946 Byxelkrok                     6365800 1571500
##  8 FLAD  00104094 Fladen                        6348600 1258800
##  9 GAFJ  00104178 Gaviksfjrden                 7005100 1642800
## 10 HABU  00106486 Vstra Hanbukten             6181700 1404600
## # ... with 52 more rows

left_join(agg_data, locations, by = "loc")

## # A tibble: 5,661 x 10
##     year genus loc   metal lab   value id       name              lat    long
##    <dbl> <chr> <chr> <chr> <chr> <dbl> <chr>    <chr>           <dbl>   <dbl>
##  1  1972 CLUP  ANGV  hg    fs    109.  00106619 ngskrsklubb 6715100 1629400
##  2  1972 CLUP  UTLV  hg    fs     28.2 00106288 Utlngan      6208830 1501600
##  3  1973 CLUP  ANGV  hg    fs     49.8 00106619 ngskrsklubb 6715100 1629400
##  4  1973 CLUP  UTLV  hg    fs     22.6 00106288 Utlngan      6208830 1501600
##  5  1974 CLUP  ANGV  hg    fs     58.5 00106619 ngskrsklubb 6715100 1629400
##  6  1974 CLUP  UTLV  hg    fs     27.3 00106288 Utlngan      6208830 1501600
##  7  1975 CLUP  ANGV  hg    fs     57.3 00106619 ngskrsklubb 6715100 1629400
##  8  1975 CLUP  UTLV  hg    fs     25.1 00106288 Utlngan      6208830 1501600
##  9  1979 CLUP  ANGK  hg    fs     38.4 00106619 ngskrsklubb 6715100 1629400
## 10  1979 CLUP  HAFJ  hg    fs     49.4 00104398 Harufjrden   7294000 1825900
## # ... with 5,651 more rows
…
Turn tasks into functions

read_metal_concentrations <- function(){
  data <- readxl::read_excel("havmet.xlsx", guess_max = 10000, na = "-9") %>% 
    pivot_longer(hgfs:sntsi, names_to = "metal", values_to = "value") %>% 
    mutate(lab = str_extract(metal, "fsi|fs|tsi|ts"),
           metal = str_remove(metal, "fsi|fs|tsi|ts"),
           value = ifelse(value < 0, abs(value) / 2, value)) %>% 
    na.omit()
  
  data
}
read_metal_concentrations()

## # A tibble: 53,161 x 7
##    accnr      year genus loc   metal value lab  
##    <chr>     <dbl> <chr> <chr> <chr> <dbl> <chr>
##  1 C72/08002  1972 CLUP  ANGV  hg       74 fs   
##  2 C72/08003  1972 CLUP  ANGV  hg      100 fs   
##  3 C72/08004  1972 CLUP  ANGV  hg      253 fs   
##  4 C72/08005  1972 CLUP  ANGV  hg       47 fs   
##  5 C72/08006  1972 CLUP  ANGV  hg       48 fs   
##  6 C72/08007  1972 CLUP  ANGV  hg       61 fs   
##  7 C72/08008  1972 CLUP  ANGV  hg       41 fs   
##  8 C72/08009  1972 CLUP  ANGV  hg       45 fs   
##  9 C72/08010  1972 CLUP  ANGV  hg       72 fs   
## 10 C72/08011  1972 CLUP  ANGV  hg      224 fs   
## # ... with 53,151 more rows
…
